<?xml version="1.0" encoding="utf-8"?>
<!-- SVG - ADobe Illustrator - Licensed to Slick -->
<!DOCTYPE svg PUBLIC "-//W3C//DTD SVG 1.1//EN" "http://www.w3.org/Graphics/SVG/1.1/DTD/svg11.dtd">
<svg version="1.1" id="Layer_1" xmlns="http://www.w3.org/2000/svg" xmlns:xlink="http://www.w3.org/1999/xlink" x="0px" y="0px"
	 width="281px" height="61px" viewBox="0 0 281 61" enable-background="new 0 0 281 61" xml:space="preserve">
<g>
	<linearGradient id="SVGID_1_" gradientUnits="userSpaceOnUse" x1="10.4487" y1="56.6709" x2="10.4487" y2="50.0469">
		<stop  offset="0" style="stop-color:#58595B"/>
		<stop  offset="0.1403" style="stop-color:#5C5D60"/>
		<stop  offset="0.3058" style="stop-color:#68696C"/>
		<stop  offset="0.484" style="stop-color:#7A7C7F"/>
		<stop  offset="0.6713" style="stop-color:#939598"/>
		<stop  offset="0.8636" style="stop-color:#B4B6B9"/>
		<stop  offset="1" style="stop-color:#D1D3D4"/>
	</linearGradient>
	<path fill="url(#SVGID_1_)" d="M10.253,54.036l0.153-0.726h2.805l-0.546,2.609c-0.353,0.223-0.755,0.401-1.207,0.542
		c-0.451,0.139-0.896,0.209-1.333,0.209c-0.933,0-1.628-0.281-2.089-0.843c-0.388-0.478-0.581-1.085-0.581-1.832
		c0-0.769,0.169-1.469,0.509-2.101c0.339-0.628,0.768-1.095,1.286-1.397c0.516-0.302,1.092-0.451,1.723-0.451
		c0.455,0,0.862,0.082,1.223,0.246c0.362,0.167,0.639,0.385,0.831,0.658c0.192,0.277,0.331,0.637,0.416,1.079l-0.839,0.093
		c-0.091-0.442-0.278-0.778-0.563-1.013c-0.283-0.234-0.648-0.351-1.094-0.351c-0.463,0-0.897,0.125-1.298,0.378
		c-0.402,0.251-0.723,0.632-0.964,1.139c-0.24,0.509-0.361,1.086-0.361,1.734c0,0.643,0.159,1.129,0.476,1.458
		c0.318,0.329,0.757,0.494,1.315,0.494c0.557,0,1.156-0.183,1.796-0.55l0.289-1.377H10.253z"/>
	<linearGradient id="SVGID_2_" gradientUnits="userSpaceOnUse" x1="26.9565" y1="56.5625" x2="26.9565" y2="50.1563">
		<stop  offset="0" style="stop-color:#58595B"/>
		<stop  offset="0.1403" style="stop-color:#5C5D60"/>
		<stop  offset="0.3058" style="stop-color:#68696C"/>
		<stop  offset="0.484" style="stop-color:#7A7C7F"/>
		<stop  offset="0.6713" style="stop-color:#939598"/>
		<stop  offset="0.8636" style="stop-color:#B4B6B9"/>
		<stop  offset="1" style="stop-color:#D1D3D4"/>
	</linearGradient>
	<path fill="url(#SVGID_2_)" d="M24.107,56.563l3.631-6.406h1.009l1.058,6.406h-0.83l-0.311-1.845h-2.591l-1.027,1.845H24.107z
		 M26.441,54.059h2.119l-0.249-1.608c-0.097-0.64-0.157-1.17-0.18-1.595c-0.145,0.366-0.358,0.802-0.638,1.305L26.441,54.059z"/>
	<linearGradient id="SVGID_3_" gradientUnits="userSpaceOnUse" x1="45.0942" y1="56.5625" x2="45.0942" y2="50.1563">
		<stop  offset="0" style="stop-color:#58595B"/>
		<stop  offset="0.1403" style="stop-color:#5C5D60"/>
		<stop  offset="0.3058" style="stop-color:#68696C"/>
		<stop  offset="0.484" style="stop-color:#7A7C7F"/>
		<stop  offset="0.6713" style="stop-color:#939598"/>
		<stop  offset="0.8636" style="stop-color:#B4B6B9"/>
		<stop  offset="1" style="stop-color:#D1D3D4"/>
	</linearGradient>
	<path fill="url(#SVGID_3_)" d="M41.388,56.563l1.338-6.406h1.053l0.646,4.15c0.084,0.545,0.14,1.067,0.166,1.568
		c0.178-0.43,0.475-1.015,0.892-1.752l2.246-3.967h1.07l-1.337,6.406h-0.844l0.669-3.118c0.154-0.718,0.376-1.524,0.665-2.42
		c-0.184,0.417-0.411,0.866-0.682,1.347l-2.386,4.191h-0.826l-0.643-4.108c-0.058-0.376-0.1-0.813-0.126-1.314
		c-0.073,0.562-0.144,1.007-0.214,1.337l-0.852,4.086H41.388z"/>
	<linearGradient id="SVGID_4_" gradientUnits="userSpaceOnUse" x1="60.7979" y1="56.5625" x2="60.7979" y2="50.1563">
		<stop  offset="0" style="stop-color:#58595B"/>
		<stop  offset="0.1403" style="stop-color:#5C5D60"/>
		<stop  offset="0.3058" style="stop-color:#68696C"/>
		<stop  offset="0.484" style="stop-color:#7A7C7F"/>
		<stop  offset="0.6713" style="stop-color:#939598"/>
		<stop  offset="0.8636" style="stop-color:#B4B6B9"/>
		<stop  offset="1" style="stop-color:#D1D3D4"/>
	</linearGradient>
	<path fill="url(#SVGID_4_)" d="M59.701,56.563l1.342-6.406h0.852l-1.337,6.406H59.701z"/>
	<linearGradient id="SVGID_5_" gradientUnits="userSpaceOnUse" x1="76.021" y1="56.5625" x2="76.021" y2="50.1563">
		<stop  offset="0" style="stop-color:#58595B"/>
		<stop  offset="0.1403" style="stop-color:#5C5D60"/>
		<stop  offset="0.3058" style="stop-color:#68696C"/>
		<stop  offset="0.484" style="stop-color:#7A7C7F"/>
		<stop  offset="0.6713" style="stop-color:#939598"/>
		<stop  offset="0.8636" style="stop-color:#B4B6B9"/>
		<stop  offset="1" style="stop-color:#D1D3D4"/>
	</linearGradient>
	<path fill="url(#SVGID_5_)" d="M72.853,56.563l1.341-6.406h0.831l1.08,2.403c0.33,0.732,0.59,1.351,0.783,1.852
		c0.11,0.292,0.238,0.686,0.383,1.18c0.079-0.538,0.178-1.095,0.298-1.669l0.786-3.766h0.835l-1.337,6.406h-0.847l-1.591-3.702
		c-0.283-0.652-0.503-1.228-0.66-1.726c-0.044,0.414-0.129,0.927-0.253,1.533l-0.813,3.895H72.853z"/>
	<linearGradient id="SVGID_6_" gradientUnits="userSpaceOnUse" x1="93.481" y1="56.6709" x2="93.481" y2="50.0469">
		<stop  offset="0" style="stop-color:#58595B"/>
		<stop  offset="0.1403" style="stop-color:#5C5D60"/>
		<stop  offset="0.3058" style="stop-color:#68696C"/>
		<stop  offset="0.484" style="stop-color:#7A7C7F"/>
		<stop  offset="0.6713" style="stop-color:#939598"/>
		<stop  offset="0.8636" style="stop-color:#B4B6B9"/>
		<stop  offset="1" style="stop-color:#D1D3D4"/>
	</linearGradient>
	<path fill="url(#SVGID_6_)" d="M93.285,54.036l0.154-0.726h2.805l-0.546,2.609c-0.353,0.223-0.754,0.401-1.207,0.542
		c-0.451,0.139-0.895,0.209-1.333,0.209c-0.932,0-1.628-0.281-2.088-0.843c-0.389-0.478-0.583-1.085-0.583-1.832
		c0-0.769,0.17-1.469,0.509-2.101c0.339-0.628,0.768-1.095,1.285-1.397c0.517-0.302,1.091-0.451,1.724-0.451
		c0.455,0,0.862,0.082,1.224,0.246c0.361,0.167,0.638,0.385,0.83,0.658c0.193,0.277,0.331,0.637,0.415,1.079l-0.838,0.093
		c-0.091-0.442-0.278-0.778-0.562-1.013c-0.285-0.234-0.649-0.351-1.095-0.351c-0.462,0-0.896,0.125-1.297,0.378
		c-0.403,0.251-0.724,0.632-0.963,1.139c-0.241,0.509-0.361,1.086-0.361,1.734c0,0.643,0.159,1.129,0.477,1.458
		c0.317,0.329,0.755,0.494,1.315,0.494c0.556,0,1.155-0.183,1.796-0.55l0.288-1.377H93.285z"/>
	<linearGradient id="SVGID_7_" gradientUnits="userSpaceOnUse" x1="124.353" y1="56.6748" x2="124.353" y2="50.1563">
		<stop  offset="0" style="stop-color:#58595B"/>
		<stop  offset="0.1403" style="stop-color:#5C5D60"/>
		<stop  offset="0.3058" style="stop-color:#68696C"/>
		<stop  offset="0.484" style="stop-color:#7A7C7F"/>
		<stop  offset="0.6713" style="stop-color:#939598"/>
		<stop  offset="0.8636" style="stop-color:#B4B6B9"/>
		<stop  offset="1" style="stop-color:#D1D3D4"/>
	</linearGradient>
	<path fill="url(#SVGID_7_)" d="M122.319,50.156h0.856l-0.822,3.937c-0.067,0.325-0.1,0.568-0.1,0.726
		c0,0.344,0.135,0.621,0.406,0.83c0.271,0.211,0.612,0.314,1.022,0.314c0.326,0,0.629-0.074,0.912-0.225
		c0.28-0.15,0.503-0.371,0.667-0.662c0.163-0.292,0.31-0.756,0.441-1.395l0.739-3.525h0.856l-0.781,3.757
		c-0.135,0.643-0.311,1.149-0.529,1.523c-0.218,0.375-0.522,0.675-0.909,0.898c-0.388,0.229-0.837,0.34-1.35,0.34
		c-0.483,0-0.903-0.08-1.256-0.24c-0.354-0.16-0.619-0.382-0.795-0.665c-0.177-0.281-0.266-0.603-0.266-0.96
		c0-0.224,0.06-0.611,0.18-1.158L122.319,50.156z"/>
	<linearGradient id="SVGID_8_" gradientUnits="userSpaceOnUse" x1="141.3525" y1="56.5625" x2="141.3525" y2="50.1563">
		<stop  offset="0" style="stop-color:#58595B"/>
		<stop  offset="0.1403" style="stop-color:#5C5D60"/>
		<stop  offset="0.3058" style="stop-color:#68696C"/>
		<stop  offset="0.484" style="stop-color:#7A7C7F"/>
		<stop  offset="0.6713" style="stop-color:#939598"/>
		<stop  offset="0.8636" style="stop-color:#B4B6B9"/>
		<stop  offset="1" style="stop-color:#D1D3D4"/>
	</linearGradient>
	<path fill="url(#SVGID_8_)" d="M138.185,56.563l1.341-6.406h0.83l1.081,2.403c0.327,0.732,0.59,1.351,0.779,1.852
		c0.112,0.292,0.241,0.686,0.387,1.18c0.079-0.538,0.178-1.095,0.297-1.669l0.787-3.766h0.834l-1.337,6.406h-0.848l-1.59-3.702
		c-0.284-0.652-0.502-1.228-0.66-1.726c-0.044,0.414-0.129,0.927-0.254,1.533l-0.813,3.895H138.185z"/>
	<linearGradient id="SVGID_9_" gradientUnits="userSpaceOnUse" x1="156.5586" y1="56.5625" x2="156.5586" y2="50.1563">
		<stop  offset="0" style="stop-color:#58595B"/>
		<stop  offset="0.1403" style="stop-color:#5C5D60"/>
		<stop  offset="0.3058" style="stop-color:#68696C"/>
		<stop  offset="0.484" style="stop-color:#7A7C7F"/>
		<stop  offset="0.6713" style="stop-color:#939598"/>
		<stop  offset="0.8636" style="stop-color:#B4B6B9"/>
		<stop  offset="1" style="stop-color:#D1D3D4"/>
	</linearGradient>
	<path fill="url(#SVGID_9_)" d="M155.462,56.563l1.34-6.406h0.854l-1.339,6.406H155.462z"/>
	<linearGradient id="SVGID_10_" gradientUnits="userSpaceOnUse" x1="172.1172" y1="56.5625" x2="172.1172" y2="50.1563">
		<stop  offset="0" style="stop-color:#58595B"/>
		<stop  offset="0.1403" style="stop-color:#5C5D60"/>
		<stop  offset="0.3058" style="stop-color:#68696C"/>
		<stop  offset="0.484" style="stop-color:#7A7C7F"/>
		<stop  offset="0.6713" style="stop-color:#939598"/>
		<stop  offset="0.8636" style="stop-color:#B4B6B9"/>
		<stop  offset="1" style="stop-color:#D1D3D4"/>
	</linearGradient>
	<path fill="url(#SVGID_10_)" d="M170.518,56.563l-1.231-6.406h0.825l0.744,3.818c0.137,0.693,0.226,1.252,0.267,1.678
		c0.269-0.546,0.488-0.982,0.661-1.301l2.283-4.195h0.883l-3.513,6.406H170.518z"/>
	<linearGradient id="SVGID_11_" gradientUnits="userSpaceOnUse" x1="188.2695" y1="56.5625" x2="188.2695" y2="50.1563">
		<stop  offset="0" style="stop-color:#58595B"/>
		<stop  offset="0.1403" style="stop-color:#5C5D60"/>
		<stop  offset="0.3058" style="stop-color:#68696C"/>
		<stop  offset="0.484" style="stop-color:#7A7C7F"/>
		<stop  offset="0.6713" style="stop-color:#939598"/>
		<stop  offset="0.8636" style="stop-color:#B4B6B9"/>
		<stop  offset="1" style="stop-color:#D1D3D4"/>
	</linearGradient>
	<path fill="url(#SVGID_11_)" d="M185.286,56.563l1.341-6.406h4.625l-0.154,0.729h-3.767l-0.419,1.992h3.671l-0.151,0.729h-3.672
		l-0.464,2.229h4.034l-0.152,0.727H185.286z"/>
	<linearGradient id="SVGID_12_" gradientUnits="userSpaceOnUse" x1="205.0693" y1="56.5625" x2="205.0693" y2="50.1563">
		<stop  offset="0" style="stop-color:#58595B"/>
		<stop  offset="0.1403" style="stop-color:#5C5D60"/>
		<stop  offset="0.3058" style="stop-color:#68696C"/>
		<stop  offset="0.484" style="stop-color:#7A7C7F"/>
		<stop  offset="0.6713" style="stop-color:#939598"/>
		<stop  offset="0.8636" style="stop-color:#B4B6B9"/>
		<stop  offset="1" style="stop-color:#D1D3D4"/>
	</linearGradient>
	<path fill="url(#SVGID_12_)" d="M202.012,56.563l1.344-6.406h2.687c0.53,0,0.932,0.044,1.206,0.132
		c0.273,0.089,0.487,0.257,0.646,0.501c0.154,0.246,0.232,0.553,0.232,0.927c0,0.521-0.173,0.953-0.513,1.297
		c-0.34,0.345-0.89,0.566-1.651,0.669c0.233,0.173,0.409,0.341,0.53,0.507c0.265,0.376,0.48,0.765,0.646,1.166l0.49,1.208h-0.959
		l-0.458-1.194c-0.167-0.431-0.358-0.804-0.569-1.117c-0.146-0.219-0.296-0.362-0.446-0.434c-0.15-0.065-0.396-0.101-0.738-0.101
		h-0.996l-0.594,2.846H202.012z M203.608,53.022h1.184c0.547,0,0.903-0.008,1.071-0.022c0.322-0.033,0.586-0.104,0.794-0.219
		c0.206-0.113,0.367-0.268,0.482-0.458c0.112-0.192,0.168-0.399,0.168-0.622c0-0.185-0.042-0.348-0.125-0.485
		c-0.086-0.14-0.198-0.232-0.332-0.282c-0.139-0.049-0.372-0.074-0.7-0.074h-2.087L203.608,53.022z"/>
	<linearGradient id="SVGID_13_" gradientUnits="userSpaceOnUse" x1="222.1152" y1="56.6709" x2="222.1152" y2="50.0469">
		<stop  offset="0" style="stop-color:#58595B"/>
		<stop  offset="0.1403" style="stop-color:#5C5D60"/>
		<stop  offset="0.3058" style="stop-color:#68696C"/>
		<stop  offset="0.484" style="stop-color:#7A7C7F"/>
		<stop  offset="0.6713" style="stop-color:#939598"/>
		<stop  offset="0.8636" style="stop-color:#B4B6B9"/>
		<stop  offset="1" style="stop-color:#D1D3D4"/>
	</linearGradient>
	<path fill="url(#SVGID_13_)" d="M219.425,54.49l0.84-0.079l-0.01,0.223c0,0.249,0.059,0.476,0.171,0.681
		c0.115,0.205,0.301,0.364,0.563,0.477c0.262,0.111,0.575,0.167,0.936,0.167c0.513,0,0.903-0.112,1.174-0.336
		c0.27-0.226,0.403-0.481,0.403-0.77c0-0.2-0.071-0.385-0.214-0.55c-0.145-0.162-0.543-0.385-1.19-0.664
		c-0.506-0.219-0.85-0.386-1.033-0.504c-0.289-0.188-0.501-0.396-0.639-0.618c-0.138-0.222-0.205-0.477-0.205-0.763
		c0-0.329,0.092-0.626,0.271-0.891c0.181-0.266,0.444-0.468,0.791-0.607c0.349-0.141,0.742-0.209,1.18-0.209
		c0.521,0,0.961,0.087,1.318,0.262c0.359,0.174,0.617,0.406,0.781,0.7c0.161,0.29,0.242,0.567,0.242,0.835
		c0,0.025-0.002,0.067-0.006,0.13l-0.824,0.065c0-0.181-0.016-0.321-0.048-0.424c-0.058-0.179-0.148-0.327-0.272-0.45
		c-0.121-0.122-0.289-0.222-0.503-0.296s-0.453-0.109-0.719-0.109c-0.465,0-0.829,0.104-1.088,0.313
		c-0.199,0.159-0.299,0.372-0.299,0.638c0,0.158,0.041,0.299,0.123,0.421c0.08,0.125,0.229,0.245,0.442,0.366
		c0.15,0.084,0.511,0.251,1.078,0.502c0.461,0.204,0.776,0.364,0.952,0.48c0.233,0.154,0.414,0.344,0.538,0.561
		c0.126,0.222,0.189,0.472,0.189,0.752c0,0.345-0.107,0.666-0.32,0.958c-0.208,0.295-0.503,0.519-0.874,0.68
		c-0.373,0.16-0.8,0.24-1.28,0.24c-0.726,0-1.318-0.157-1.776-0.475C219.659,55.881,219.429,55.313,219.425,54.49z"/>
	<linearGradient id="SVGID_14_" gradientUnits="userSpaceOnUse" x1="238.8906" y1="56.5625" x2="238.8906" y2="50.1563">
		<stop  offset="0" style="stop-color:#58595B"/>
		<stop  offset="0.1403" style="stop-color:#5C5D60"/>
		<stop  offset="0.3058" style="stop-color:#68696C"/>
		<stop  offset="0.484" style="stop-color:#7A7C7F"/>
		<stop  offset="0.6713" style="stop-color:#939598"/>
		<stop  offset="0.8636" style="stop-color:#B4B6B9"/>
		<stop  offset="1" style="stop-color:#D1D3D4"/>
	</linearGradient>
	<path fill="url(#SVGID_14_)" d="M235.907,56.563l1.342-6.406h4.624l-0.156,0.729h-3.764l-0.42,1.992h3.67l-0.154,0.729h-3.67
		l-0.463,2.229h4.033l-0.152,0.727H235.907z"/>
</g>
<linearGradient id="SVGID_15_" gradientUnits="userSpaceOnUse" x1="256.7324" y1="10.6274" x2="256.7324" y2="1.4565">
	<stop  offset="0" style="stop-color:#A7A9AC"/>
	<stop  offset="0.0713" style="stop-color:#B1B3B6"/>
	<stop  offset="0.2026" style="stop-color:#CDCFD1"/>
	<stop  offset="0.3783" style="stop-color:#FDFDFD"/>
	<stop  offset="0.3818" style="stop-color:#FFFFFF"/>
	<stop  offset="1" style="stop-color:#A7A9AC"/>
</linearGradient>
<path fill="url(#SVGID_15_)" d="M256.732,1.457c-2.531,0-4.586,2.053-4.586,4.585s2.055,4.585,4.586,4.585
	c2.533,0,4.587-2.053,4.587-4.585S259.266,1.457,256.732,1.457z M256.732,10.024c-2.199,0-3.983-1.783-3.983-3.982
	c0-2.2,1.784-3.982,3.983-3.982s3.983,1.783,3.983,3.982C260.716,8.241,258.932,10.024,256.732,10.024z"/>
<g>
	<linearGradient id="SVGID_16_" gradientUnits="userSpaceOnUse" x1="256.9082" y1="8.2065" x2="256.9082" y2="3.3877">
		<stop  offset="0" style="stop-color:#A7A9AC"/>
		<stop  offset="0.0713" style="stop-color:#B1B3B6"/>
		<stop  offset="0.2026" style="stop-color:#CDCFD1"/>
		<stop  offset="0.3783" style="stop-color:#FDFDFD"/>
		<stop  offset="0.3818" style="stop-color:#FFFFFF"/>
		<stop  offset="1" style="stop-color:#A7A9AC"/>
	</linearGradient>
	<path fill="url(#SVGID_16_)" d="M255.351,3.487c0.313-0.064,0.761-0.1,1.186-0.1c0.662,0,1.087,0.121,1.385,0.39
		c0.24,0.213,0.375,0.54,0.375,0.908c0,0.632-0.396,1.051-0.9,1.221v0.021c0.369,0.128,0.59,0.469,0.704,0.965
		c0.155,0.667,0.268,1.129,0.367,1.313h-0.639c-0.077-0.136-0.183-0.546-0.32-1.143c-0.14-0.661-0.396-0.908-0.956-0.93h-0.582
		v2.073h-0.619V3.487z M255.97,5.665h0.631c0.659,0,1.078-0.361,1.078-0.908c0-0.618-0.446-0.887-1.099-0.895
		c-0.298,0-0.513,0.029-0.61,0.057V5.665z"/>
</g>
<g>
	<linearGradient id="SVGID_17_" gradientUnits="userSpaceOnUse" x1="20.1709" y1="42.3711" x2="20.1709" y2="8.6885">
		<stop  offset="0" style="stop-color:#A7A9AC"/>
		<stop  offset="0.0713" style="stop-color:#B1B3B6"/>
		<stop  offset="0.2026" style="stop-color:#CDCFD1"/>
		<stop  offset="0.3783" style="stop-color:#FDFDFD"/>
		<stop  offset="0.3818" style="stop-color:#FFFFFF"/>
		<stop  offset="0.6182" style="stop-color:#FFFFFF"/>
		<stop  offset="0.7094" style="stop-color:#EBECED"/>
		<stop  offset="0.8948" style="stop-color:#C1C3C5"/>
		<stop  offset="1" style="stop-color:#A7A9AC"/>
	</linearGradient>
	<path fill="url(#SVGID_17_)" d="M11.938,21.559c0-6.747,0-7.989-0.089-9.409C11.762,10.64,11.406,9.93,9.94,9.62
		C9.586,9.53,8.833,9.487,8.21,9.487c-0.487,0-0.755-0.09-0.755-0.398c0-0.311,0.311-0.401,0.978-0.401
		c2.352,0,5.148,0.133,6.036,0.133c2.175,0,3.906-0.133,5.414-0.133c8.033,0,9.453,4.305,9.453,6.658
		c0,3.638-2.087,5.813-4.527,7.765c3.641,1.244,8.079,4.393,8.079,9.585c0,4.748-3.685,9.675-11.85,9.675
		c-0.533,0-1.821-0.089-3.106-0.132c-1.333-0.089-2.664-0.134-3.328-0.134c-0.489,0-1.466,0-2.531,0.045
		c-1.02,0-2.175,0.089-3.062,0.089c-0.576,0-0.888-0.134-0.888-0.444c0-0.224,0.179-0.356,0.711-0.356
		c0.665,0,1.197-0.089,1.596-0.178c0.888-0.176,1.11-1.152,1.287-2.439c0.223-1.863,0.223-5.371,0.223-9.452V21.559z M17.264,22.312
		c0,0.356,0.132,0.444,0.311,0.488c0.399,0.088,1.064,0.132,2.085,0.132c1.463,0,2.44-0.176,3.196-0.842
		c1.153-0.932,1.819-2.53,1.819-4.704c0-2.973-1.73-6.878-5.548-6.878c-0.62,0-1.021,0-1.463,0.09c-0.311,0.088-0.4,0.265-0.4,0.753
		V22.312z M23.122,25.861c-0.932-0.665-1.952-0.975-3.685-1.063c-0.797-0.044-1.241-0.044-1.908-0.044
		c-0.176,0-0.265,0.088-0.265,0.309v10.519c0,2.928,0.132,3.683,1.552,4.259c1.201,0.49,2.221,0.534,3.241,0.534
		c1.998,0,5.372-1.064,5.372-5.681C27.428,31.94,26.495,28.216,23.122,25.861z"/>
	<linearGradient id="SVGID_18_" gradientUnits="userSpaceOnUse" x1="49.1675" y1="42.3711" x2="49.1675" y2="8.3335">
		<stop  offset="0" style="stop-color:#A7A9AC"/>
		<stop  offset="0.0713" style="stop-color:#B1B3B6"/>
		<stop  offset="0.2026" style="stop-color:#CDCFD1"/>
		<stop  offset="0.3783" style="stop-color:#FDFDFD"/>
		<stop  offset="0.3818" style="stop-color:#FFFFFF"/>
		<stop  offset="0.6182" style="stop-color:#FFFFFF"/>
		<stop  offset="0.7094" style="stop-color:#EBECED"/>
		<stop  offset="0.8948" style="stop-color:#C1C3C5"/>
		<stop  offset="1" style="stop-color:#A7A9AC"/>
	</linearGradient>
	<path fill="url(#SVGID_18_)" d="M42.443,21.559c0-6.747,0-7.989-0.087-9.409c-0.09-1.509-0.444-2.22-1.91-2.529
		c-0.356-0.09-1.11-0.133-1.73-0.133c-0.488,0-0.754-0.09-0.754-0.398c0-0.311,0.309-0.401,0.977-0.401
		c1.198,0,2.483,0.044,3.594,0.044c1.154,0.045,2.175,0.088,2.797,0.088c1.419,0,10.251,0,11.093-0.043
		c0.844-0.09,1.553-0.179,1.909-0.268c0.221-0.043,0.488-0.177,0.711-0.177c0.22,0,0.265,0.177,0.265,0.399
		c0,0.311-0.223,0.844-0.355,2.885c-0.044,0.443-0.133,2.395-0.222,2.928c-0.045,0.223-0.134,0.488-0.444,0.488
		c-0.312,0-0.399-0.222-0.399-0.621c0-0.31-0.046-1.064-0.265-1.598c-0.312-0.797-0.755-1.332-2.976-1.599
		c-0.755-0.088-5.414-0.176-6.302-0.176c-0.22,0-0.31,0.133-0.31,0.444v11.229c0,0.309,0.044,0.486,0.31,0.486
		c0.978,0,6.081,0,7.102-0.087c1.065-0.09,1.73-0.223,2.13-0.664c0.311-0.357,0.489-0.578,0.71-0.578
		c0.176,0,0.311,0.089,0.311,0.354c0,0.266-0.177,0.975-0.356,3.24c-0.043,0.886-0.176,2.664-0.176,2.973c0,0.355,0,0.844-0.4,0.844
		c-0.312,0-0.399-0.179-0.399-0.399c-0.043-0.444-0.043-1.021-0.177-1.599c-0.221-0.888-0.844-1.554-2.486-1.729
		c-0.841-0.089-5.236-0.133-6.302-0.133c-0.221,0-0.266,0.178-0.266,0.442v3.508c0,1.508-0.042,5.591,0,6.878
		c0.089,3.063,0.798,3.728,5.326,3.728c1.153,0,3.019,0,4.172-0.532c1.153-0.531,1.686-1.464,1.996-3.284
		c0.089-0.489,0.179-0.666,0.489-0.666c0.356,0,0.356,0.355,0.356,0.799c0,1.021-0.356,4.039-0.579,4.927
		c-0.311,1.153-0.71,1.153-2.396,1.153c-3.327,0-5.769-0.089-7.678-0.132c-1.909-0.089-3.283-0.134-4.616-0.134
		c-0.487,0-1.463,0-2.528,0.045c-1.021,0-2.176,0.089-3.062,0.089c-0.577,0-0.888-0.134-0.888-0.444
		c0-0.224,0.176-0.356,0.708-0.356c0.665,0,1.199-0.089,1.599-0.178c0.888-0.176,1.108-1.152,1.286-2.439
		c0.222-1.863,0.222-5.371,0.222-9.452V21.559z"/>
	<linearGradient id="SVGID_19_" gradientUnits="userSpaceOnUse" x1="78.8477" y1="42.2393" x2="78.8477" y2="8.0684">
		<stop  offset="0" style="stop-color:#A7A9AC"/>
		<stop  offset="0.0713" style="stop-color:#B1B3B6"/>
		<stop  offset="0.2026" style="stop-color:#CDCFD1"/>
		<stop  offset="0.3783" style="stop-color:#FDFDFD"/>
		<stop  offset="0.3818" style="stop-color:#FFFFFF"/>
		<stop  offset="0.6182" style="stop-color:#FFFFFF"/>
		<stop  offset="0.7094" style="stop-color:#EBECED"/>
		<stop  offset="0.8948" style="stop-color:#C1C3C5"/>
		<stop  offset="1" style="stop-color:#A7A9AC"/>
	</linearGradient>
	<path fill="url(#SVGID_19_)" d="M76.406,11.172l-6.613,0.178c-2.572,0.089-3.638,0.311-4.303,1.286
		c-0.445,0.667-0.668,1.199-0.755,1.553c-0.089,0.355-0.222,0.534-0.489,0.534c-0.311,0-0.398-0.223-0.398-0.711
		c0-0.709,0.843-4.748,0.931-5.104c0.133-0.576,0.267-0.841,0.532-0.841c0.356,0,0.8,0.442,1.91,0.531
		c1.286,0.133,2.972,0.222,4.438,0.222h17.573c1.42,0,2.396-0.133,3.061-0.222c0.667-0.132,1.021-0.223,1.2-0.223
		c0.311,0,0.354,0.268,0.354,0.932c0,0.934-0.133,3.996-0.133,5.15c-0.043,0.442-0.132,0.71-0.4,0.71
		c-0.354,0-0.441-0.224-0.488-0.889l-0.043-0.489c-0.09-1.154-1.287-2.395-5.238-2.483l-5.592-0.135v18.197
		c0,4.081,0,7.589,0.222,9.496c0.134,1.243,0.399,2.22,1.731,2.396c0.623,0.089,1.597,0.178,2.263,0.178
		c0.488,0,0.711,0.133,0.711,0.356c0,0.311-0.356,0.444-0.845,0.444c-2.928,0-5.724-0.134-6.966-0.134
		c-1.021,0-3.818,0.134-5.591,0.134c-0.578,0-0.888-0.134-0.888-0.444c0-0.224,0.178-0.356,0.71-0.356
		c0.665,0,1.199-0.089,1.597-0.178c0.888-0.176,1.156-1.152,1.288-2.439c0.221-1.863,0.221-5.371,0.221-9.452V11.172z"/>
</g>
<g>
	<linearGradient id="SVGID_20_" gradientUnits="userSpaceOnUse" x1="114.4712" y1="42.4219" x2="114.4712" y2="8.1196">
		<stop  offset="0" style="stop-color:#FBB040"/>
		<stop  offset="0.0744" style="stop-color:#FEC45A"/>
		<stop  offset="0.1746" style="stop-color:#FFD976"/>
		<stop  offset="0.2755" style="stop-color:#FFE889"/>
		<stop  offset="0.3768" style="stop-color:#FFF295"/>
		<stop  offset="0.4788" style="stop-color:#FFF799"/>
		<stop  offset="0.572" style="stop-color:#FFEF92"/>
		<stop  offset="0.7067" style="stop-color:#FFE07F"/>
		<stop  offset="0.8656" style="stop-color:#FFC860"/>
		<stop  offset="1" style="stop-color:#FBB040"/>
	</linearGradient>
	<path fill="url(#SVGID_20_)" d="M100.361,21.021c0-6.765,0.053-8.026-0.052-9.442c-0.105-1.574-0.525-1.993-1.993-2.412
		c-0.367-0.104-1.154-0.158-1.783-0.158c-0.526,0-0.787-0.158-0.787-0.471c0-0.316,0.313-0.419,0.997-0.419
		c2.463,0,5.559,0.103,6.923,0.103c1.152,0,4.248-0.103,5.927-0.103c0.681,0,0.997,0.103,0.997,0.419
		c0,0.313-0.264,0.471-0.736,0.471c-0.525,0-0.787,0.054-1.364,0.158c-1.206,0.209-1.573,0.838-1.678,2.412
		c-0.105,1.416-0.105,2.677-0.105,9.442v6.243c0,6.505,1.257,9.02,3.515,10.803c2.044,1.63,4.247,1.784,5.822,1.784
		c1.993,0,4.353-0.575,6.191-2.358c2.57-2.414,2.673-6.294,2.673-10.858v-5.613c0-6.765-0.052-8.026-0.104-9.442
		c-0.106-1.519-0.474-1.993-1.941-2.412c-0.367-0.104-1.154-0.158-1.68-0.158c-0.523,0-0.787-0.158-0.787-0.471
		c0-0.316,0.316-0.419,0.944-0.419c2.361,0,5.458,0.103,5.508,0.103c0.526,0,3.619-0.103,5.402-0.103
		c0.631,0,0.944,0.103,0.944,0.419c0,0.313-0.261,0.471-0.786,0.471c-0.523,0-0.788,0.054-1.364,0.158
		c-1.259,0.209-1.574,0.838-1.678,2.412c-0.051,1.416-0.106,2.677-0.106,9.442v4.772c0,4.985-0.522,10.229-4.405,13.43
		c-3.254,2.727-6.766,3.198-9.755,3.198c-2.415,0-7.188-0.104-10.545-3.042c-2.36-2.044-4.196-5.351-4.196-11.802V21.021z"/>
	<linearGradient id="SVGID_21_" gradientUnits="userSpaceOnUse" x1="155.3691" y1="42.3701" x2="155.3691" y2="7.332">
		<stop  offset="0" style="stop-color:#FBB040"/>
		<stop  offset="0.0744" style="stop-color:#FEC45A"/>
		<stop  offset="0.1746" style="stop-color:#FFD976"/>
		<stop  offset="0.2755" style="stop-color:#FFE889"/>
		<stop  offset="0.3768" style="stop-color:#FFF295"/>
		<stop  offset="0.4788" style="stop-color:#FFF799"/>
		<stop  offset="0.572" style="stop-color:#FFEF92"/>
		<stop  offset="0.7067" style="stop-color:#FFE07F"/>
		<stop  offset="0.8656" style="stop-color:#FFC860"/>
		<stop  offset="1" style="stop-color:#FBB040"/>
	</linearGradient>
	<path fill="url(#SVGID_21_)" d="M144.04,35.763c0.105,3.461,0.683,4.511,1.573,4.823c0.787,0.265,1.68,0.317,2.413,0.317
		c0.525,0,0.786,0.208,0.786,0.47c0,0.368-0.42,0.474-1.048,0.474c-2.99,0-5.14-0.156-5.979-0.156c-0.421,0-2.626,0.156-4.986,0.156
		c-0.628,0-1.049-0.055-1.049-0.474c0-0.262,0.317-0.47,0.736-0.47c0.629,0,1.467-0.053,2.096-0.211
		c1.209-0.315,1.364-1.521,1.419-5.404l0.419-26.437c0-0.89,0.313-1.52,0.787-1.52c0.578,0,1.206,0.681,1.993,1.468
		c0.577,0.577,7.501,7.658,14.215,14.214c3.147,3.097,9.285,9.392,9.965,10.02h0.21l-0.472-19.826
		c-0.052-2.728-0.471-3.514-1.573-3.934c-0.682-0.264-1.784-0.264-2.412-0.264c-0.577,0-0.736-0.209-0.736-0.471
		c0-0.368,0.472-0.419,1.156-0.419c2.411,0,4.878,0.103,5.874,0.103c0.523,0,2.255-0.103,4.511-0.103c0.631,0,1.05,0.051,1.05,0.419
		c0,0.262-0.263,0.471-0.787,0.471c-0.475,0-0.839,0-1.416,0.158c-1.26,0.368-1.629,1.155-1.68,3.673l-0.522,28.113
		c0,0.996-0.368,1.416-0.735,1.416c-0.787,0-1.416-0.472-1.89-0.945c-2.884-2.674-8.655-8.182-13.479-12.851
		c-5.037-4.825-9.914-10.227-10.808-11.014h-0.157L144.04,35.763z"/>
	<linearGradient id="SVGID_22_" gradientUnits="userSpaceOnUse" x1="188.8945" y1="41.8467" x2="188.8945" y2="8.1196">
		<stop  offset="0" style="stop-color:#FBB040"/>
		<stop  offset="0.0744" style="stop-color:#FEC45A"/>
		<stop  offset="0.1746" style="stop-color:#FFD976"/>
		<stop  offset="0.2755" style="stop-color:#FFE889"/>
		<stop  offset="0.3768" style="stop-color:#FFF295"/>
		<stop  offset="0.4788" style="stop-color:#FFF799"/>
		<stop  offset="0.572" style="stop-color:#FFEF92"/>
		<stop  offset="0.7067" style="stop-color:#FFE07F"/>
		<stop  offset="0.8656" style="stop-color:#FFC860"/>
		<stop  offset="1" style="stop-color:#FBB040"/>
	</linearGradient>
	<path fill="url(#SVGID_22_)" d="M185.251,21.021c0-6.765,0-8.026-0.056-9.442c-0.102-1.519-0.576-2.044-1.571-2.36
		c-0.523-0.156-1.101-0.21-1.678-0.21c-0.475,0-0.736-0.103-0.736-0.523c0-0.264,0.368-0.367,1.104-0.367
		c1.729,0,4.875,0.103,6.188,0.103c1.153,0,4.145-0.103,5.927-0.103c0.577,0,0.945,0.103,0.945,0.367
		c0,0.42-0.265,0.523-0.734,0.523c-0.472,0-0.84,0.054-1.364,0.158c-1.259,0.209-1.627,0.838-1.732,2.412
		c-0.104,1.416-0.104,2.677-0.104,9.442v7.868c0,4.303,0,7.869,0.209,9.756c0.159,1.206,0.472,1.889,1.836,2.099
		c0.629,0.106,1.68,0.159,2.36,0.159c0.525,0,0.735,0.261,0.735,0.47c0,0.317-0.368,0.474-0.894,0.474
		c-3.04,0-6.188-0.156-7.446-0.156c-1.052,0-4.198,0.156-6.033,0.156c-0.576,0-0.89-0.156-0.89-0.474c0-0.209,0.154-0.47,0.731-0.47
		c0.685,0,1.207-0.053,1.628-0.159c0.942-0.21,1.208-0.838,1.362-2.151c0.212-1.834,0.212-5.4,0.212-9.703V21.021z"/>
	<linearGradient id="SVGID_23_" gradientUnits="userSpaceOnUse" x1="240.5527" y1="53.1758" x2="240.5527" y2="1.457">
		<stop  offset="0" style="stop-color:#FBB040"/>
		<stop  offset="0.0744" style="stop-color:#FEC45A"/>
		<stop  offset="0.1746" style="stop-color:#FFD976"/>
		<stop  offset="0.2755" style="stop-color:#FFE889"/>
		<stop  offset="0.3768" style="stop-color:#FFF295"/>
		<stop  offset="0.4788" style="stop-color:#FFF799"/>
		<stop  offset="0.572" style="stop-color:#FFEF92"/>
		<stop  offset="0.7067" style="stop-color:#FFE07F"/>
		<stop  offset="0.8656" style="stop-color:#FFC860"/>
		<stop  offset="1" style="stop-color:#FBB040"/>
	</linearGradient>
	<path fill="url(#SVGID_23_)" d="M231.506,41.216c-2.101,0.785-5.456,1.362-8.235,1.362c-15.371,0-21.35-11.379-21.35-20.821
		c0-8.549,6.138-20.3,21.506-20.3c12.535,0,21.242,7.606,21.242,19.881c0,9.229-5.821,15.053-9.126,17.255l10.544,5.401
		c11.068,5.666,18.044,6.244,21.611,6.244c2.727,0,6.606-0.42,10.229-1.836c0.313-0.105,0.576-0.262,0.787-0.262
		c0.26,0,0.47,0.211,0.47,0.472c0,0.315-0.261,0.473-0.629,0.631c-3.147,1.521-9.073,3.933-16.627,3.933
		c-7.92,0-13.535-2.044-22.189-7.134L231.506,41.216z M237.326,22.754c0-12.693-7.868-18.779-15.105-18.779
		c-6.871,0-13.009,4.405-13.009,16.576c0,12.482,7.554,19.406,15.999,19.406C229.405,39.957,237.326,38.123,237.326,22.754z"/>
</g>
</svg>
